step,time (ns),potential (kJ/mol),kinetic (kJ/mol),total (kJ/mol),temperature (K),pressure (atm)
0.0000e+00,0.0000e+00,-8.9077e+01,1.7631e-01,-8.8901e+01,6.4260e-01,2.9908e-03
1.0000e+00,1.0000e-04,-9.0349e+01,1.6896e+00,-8.8660e+01,6.1579e+00,-1.0364e-03
2.0000e+00,2.0000e-04,-9.4611e+01,4.0955e+00,-9.0516e+01,1.4926e+01,-4.7658e-03
3.0000e+00,3.0000e-04,-9.3390e+01,1.0923e+00,-9.2298e+01,3.9811e+00,2.8498e-03
4.0000e+00,4.0000e-04,-9.3072e+01,3.2181e+00,-8.9854e+01,1.1729e+01,5.6548e-03
5.0000e+00,5.0000e-04,-8.7589e+01,9.1060e-01,-8.6679e+01,3.3188e+00,-3.0725e-03
6.0000e+00,6.0000e-04,-8.8805e+01,7.1704e+00,-8.1634e+01,2.6133e+01,-1.7244e-02
7.0000e+00,7.0000e-04,-8.9204e+01,7.1982e+00,-8.2005e+01,2.6235e+01,-2.2440e-02
8.0000e+00,8.0000e-04,-8.9201e+01,6.1930e+00,-8.3008e+01,2.2571e+01,1.8796e-02
9.0000e+00,9.0000e-04,-8.6378e+01,3.9368e+00,-8.2441e+01,1.4348e+01,8.2392e-03
1.0000e+01,1.0000e-03,-8.3398e+01,6.1235e+00,-7.7274e+01,2.2318e+01,-4.7557e-02
1.1000e+01,1.1000e-03,-8.3357e+01,1.1783e+01,-7.1574e+01,4.2946e+01,-4.6318e-02
1.2000e+01,1.2000e-03,-8.9015e+01,1.1796e+01,-7.7219e+01,4.2993e+01,1.7713e-03
1.3000e+01,1.3000e-03,-8.1857e+01,4.9120e+00,-7.6945e+01,1.7902e+01,2.6557e-02
1.4000e+01,1.4000e-03,-8.4483e+01,1.7927e+01,-6.6555e+01,6.5338e+01,-1.5035e-02
1.5000e+01,1.5000e-03,-8.3474e+01,1.1256e+01,-7.2218e+01,4.1023e+01,-3.5083e-02
1.6000e+01,1.6000e-03,-8.2178e+01,1.0669e+01,-7.1509e+01,3.8884e+01,-6.3997e-03
1.7000e+01,1.7000e-03,-8.5086e+01,1.5342e+01,-6.9744e+01,5.5917e+01,-2.7773e-02
1.8000e+01,1.8000e-03,-7.8449e+01,1.0421e+01,-6.8028e+01,3.7980e+01,3.9727e-02
1.9000e+01,1.9000e-03,-8.3888e+01,1.7544e+01,-6.6345e+01,6.3940e+01,-2.3490e-02
2.0000e+01,2.0000e-03,-8.3424e+01,1.8033e+01,-6.5391e+01,6.5725e+01,-6.8079e-02
2.1000e+01,2.1000e-03,-8.2416e+01,1.7903e+01,-6.4513e+01,6.5250e+01,4.5521e-02
2.2000e+01,2.2000e-03,-7.4708e+01,1.1851e+01,-6.2857e+01,4.3191e+01,3.4100e-02
2.3000e+01,2.3000e-03,-8.0520e+01,2.0492e+01,-6.0028e+01,7.4684e+01,-5.1475e-02
2.4000e+01,2.4000e-03,-7.9815e+01,2.0026e+01,-5.9789e+01,7.2986e+01,-3.2755e-02
2.5000e+01,2.5000e-03,-8.1939e+01,2.6751e+01,-5.5188e+01,9.7496e+01,-1.7346e-02
2.6000e+01,2.6000e-03,-7.6476e+01,1.8640e+01,-5.7836e+01,6.7936e+01,1.2037e-01
2.7000e+01,2.7000e-03,-7.3335e+01,2.4432e+01,-4.8903e+01,8.9047e+01,-2.6368e-02
2.8000e+01,2.8000e-03,-7.1492e+01,2.0236e+01,-5.1257e+01,7.3751e+01,4.2538e-02
2.9000e+01,2.9000e-03,-8.1072e+01,3.4041e+01,-4.7031e+01,1.2406e+02,3.1767e-02
3.0000e+01,3.0000e-03,-7.6959e+01,1.8491e+01,-5.8468e+01,6.7391e+01,-1.2374e-01
3.1000e+01,3.1000e-03,-7.3506e+01,2.5715e+01,-4.7791e+01,9.3721e+01,-2.6933e-02
3.2000e+01,3.2000e-03,-7.6173e+01,2.6505e+01,-4.9668e+01,9.6601e+01,-9.7885e-02
3.3000e+01,3.3000e-03,-7.7758e+01,2.8716e+01,-4.9042e+01,1.0466e+02,4.5640e-02
3.4000e+01,3.4000e-03,-7.7356e+01,3.3637e+01,-4.3719e+01,1.2259e+02,-1.2478e-01
3.5000e+01,3.5000e-03,-7.0862e+01,2.3974e+01,-4.6887e+01,8.7377e+01,-8.0232e-02
3.6000e+01,3.6000e-03,-7.8776e+01,3.2877e+01,-4.5899e+01,1.1982e+02,8.0402e-02
3.7000e+01,3.7000e-03,-7.5543e+01,2.5791e+01,-4.9752e+01,9.3999e+01,-1.3686e-01
3.8000e+01,3.8000e-03,-7.8502e+01,3.4312e+01,-4.4190e+01,1.2505e+02,-3.2744e-02
3.9000e+01,3.9000e-03,-6.8279e+01,2.5068e+01,-4.3211e+01,9.1363e+01,8.0349e-02
4.0000e+01,4.0000e-03,-6.9772e+01,3.6019e+01,-3.3753e+01,1.3127e+02,3.0925e-01
4.1000e+01,4.1000e-03,-6.2100e+01,2.6943e+01,-3.5157e+01,9.8196e+01,-1.3911e-01
4.2000e+01,4.2000e-03,-6.8751e+01,3.2887e+01,-3.5863e+01,1.1986e+02,-4.3514e-02
4.3000e+01,4.3000e-03,-6.7625e+01,4.2294e+01,-2.5331e+01,1.5414e+02,1.5783e-01
4.4000e+01,4.4000e-03,-7.0192e+01,3.6388e+01,-3.3805e+01,1.3262e+02,-4.1770e-02
4.5000e+01,4.5000e-03,-6.8738e+01,3.2746e+01,-3.5993e+01,1.1935e+02,-1.0684e-01
4.6000e+01,4.6000e-03,-6.6956e+01,3.4897e+01,-3.2059e+01,1.2718e+02,-1.1069e-01
4.7000e+01,4.7000e-03,-7.3489e+01,4.4959e+01,-2.8530e+01,1.6386e+02,7.7950e-02
4.8000e+01,4.8000e-03,-6.0162e+01,3.5668e+01,-2.4494e+01,1.3000e+02,1.6169e-01
4.9000e+01,4.9000e-03,-7.0189e+01,4.6587e+01,-2.3602e+01,1.6979e+02,-1.3215e-01
5.0000e+01,5.0000e-03,-5.9832e+01,3.7152e+01,-2.2681e+01,1.3540e+02,-4.0104e-02
5.1000e+01,5.1000e-03,-6.5971e+01,4.7099e+01,-1.8872e+01,1.7166e+02,1.4376e-01
5.2000e+01,5.2000e-03,-5.5058e+01,3.6633e+01,-1.8425e+01,1.3351e+02,-3.1339e-02
5.3000e+01,5.3000e-03,-6.7304e+01,5.4209e+01,-1.3095e+01,1.9757e+02,2.0266e-01
5.4000e+01,5.4000e-03,-5.7365e+01,4.2203e+01,-1.5162e+01,1.5382e+02,1.6018e-02
5.5000e+01,5.5000e-03,-5.4199e+01,3.1911e+01,-2.2288e+01,1.1630e+02,9.0880e-02
5.6000e+01,5.6000e-03,-6.6853e+01,4.9778e+01,-1.7075e+01,1.8142e+02,-3.8946e-02
5.7000e+01,5.7000e-03,-5.8273e+01,4.5009e+01,-1.3264e+01,1.6404e+02,2.8918e-01
5.8000e+01,5.8000e-03,-5.2181e+01,4.3797e+01,-8.3842e+00,1.5962e+02,-2.5307e-01
5.9000e+01,5.9000e-03,-4.7614e+01,4.5962e+01,-1.6522e+00,1.6751e+02,-2.5887e-01
6.0000e+01,6.0000e-03,-5.7056e+01,5.8441e+01,1.3851e+00,2.1299e+02,-3.5263e-02
6.1000e+01,6.1000e-03,-4.4960e+01,3.7447e+01,-7.5127e+00,1.3648e+02,4.1728e-02
6.2000e+01,6.2000e-03,-4.8038e+01,4.4219e+01,-3.8187e+00,1.6116e+02,2.9759e-02
6.3000e+01,6.3000e-03,-5.1758e+01,4.8732e+01,-3.0255e+00,1.7761e+02,5.7609e-03
6.4000e+01,6.4000e-03,-5.4280e+01,5.6993e+01,2.7133e+00,2.0772e+02,1.2383e-01
6.5000e+01,6.5000e-03,-4.9960e+01,5.9042e+01,9.0826e+00,2.1519e+02,1.1707e-01
6.6000e+01,6.6000e-03,-3.7458e+01,4.0125e+01,2.6679e+00,1.4624e+02,6.2752e-02
6.7000e+01,6.7000e-03,-5.7170e+01,5.7792e+01,6.2216e-01,2.1063e+02,6.6305e-02
6.8000e+01,6.8000e-03,-5.0480e+01,6.7833e+01,1.7353e+01,2.4722e+02,8.5825e-02
6.9000e+01,6.9000e-03,-5.7757e+01,6.4860e+01,7.1033e+00,2.3639e+02,-1.4966e-01
7.0000e+01,7.0000e-03,-3.7486e+01,4.2353e+01,4.8664e+00,1.5436e+02,-1.7745e-01
7.1000e+01,7.1000e-03,-2.9709e+01,4.3458e+01,1.3749e+01,1.5839e+02,-2.3043e-01
7.2000e+01,7.2000e-03,-2.5829e+01,6.0864e+01,3.5035e+01,2.2183e+02,-2.2005e-02
7.3000e+01,7.3000e-03,-2.7476e+01,6.3216e+01,3.5740e+01,2.3040e+02,-2.0891e-02
7.4000e+01,7.4000e-03,-2.3922e+01,5.6949e+01,3.3027e+01,2.0756e+02,-2.3561e-01
7.5000e+01,7.5000e-03,-3.4522e+01,7.5166e+01,4.0644e+01,2.7395e+02,-1.7287e-01
7.6000e+01,7.6000e-03,-3.7329e+01,6.0610e+01,2.3282e+01,2.2090e+02,-7.3453e-02
7.7000e+01,7.7000e-03,-4.3039e+01,7.2882e+01,2.9843e+01,2.6563e+02,1.8060e-01
7.8000e+01,7.8000e-03,-4.2794e+01,5.6838e+01,1.4043e+01,2.0715e+02,1.5037e-01
7.9000e+01,7.9000e-03,-3.9659e+01,7.2848e+01,3.3190e+01,2.6550e+02,-1.7575e-01
8.0000e+01,8.0000e-03,-4.0189e+01,6.0195e+01,2.0005e+01,2.1939e+02,7.1214e-02
8.1000e+01,8.1000e-03,-2.7261e+01,6.6273e+01,3.9013e+01,2.4154e+02,2.1789e-01
8.2000e+01,8.2000e-03,-2.0486e+01,5.2991e+01,3.2505e+01,1.9313e+02,-3.6351e-01
8.3000e+01,8.3000e-03,-2.2749e+01,6.2505e+01,3.9756e+01,2.2781e+02,1.0741e-02
8.4000e+01,8.4000e-03,-1.5148e+01,7.4160e+01,5.9012e+01,2.7028e+02,1.4057e-01
8.5000e+01,8.5000e-03,-4.3608e+01,8.1672e+01,3.8064e+01,2.9766e+02,1.6063e-02
8.6000e+01,8.6000e-03,-1.2489e+01,6.2453e+01,4.9963e+01,2.2762e+02,-1.9463e-01
8.7000e+01,8.7000e-03,-1.1906e+01,5.2391e+01,4.0485e+01,1.9095e+02,-3.0636e-02
8.8000e+01,8.8000e-03,-1.6283e+01,7.7235e+01,6.0951e+01,2.8149e+02,2.4181e-01
8.9000e+01,8.9000e-03,-3.5532e+01,9.9391e+01,6.3858e+01,3.6224e+02,-1.6800e-01
9.0000e+01,9.0000e-03,-1.9820e+01,6.4550e+01,4.4730e+01,2.3526e+02,-2.4536e-02
9.1000e+01,9.1000e-03,-7.5795e+00,7.0152e+01,6.2573e+01,2.5568e+02,1.5267e-01
9.2000e+01,9.2000e-03,-3.4588e+00,5.7401e+01,5.3942e+01,2.0921e+02,1.8608e-01
9.3000e+01,9.3000e-03,-1.7029e+01,8.2541e+01,6.5511e+01,3.0083e+02,9.3425e-02
9.4000e+01,9.4000e-03,-1.9726e+01,7.7401e+01,5.7676e+01,2.8210e+02,1.2915e-01
9.5000e+01,9.5000e-03,-2.4182e+01,7.4565e+01,5.0382e+01,2.7176e+02,9.4888e-02
9.6000e+01,9.6000e-03,-2.2125e+01,6.8416e+01,4.6291e+01,2.4935e+02,2.9386e-02
9.7000e+01,9.7000e-03,-2.8804e+01,8.4146e+01,5.5342e+01,3.0668e+02,8.4127e-02
9.8000e+01,9.8000e-03,-1.6232e+01,8.0516e+01,6.4284e+01,2.9345e+02,-8.3269e-02
9.9000e+01,9.9000e-03,-1.8793e+01,8.5338e+01,6.6545e+01,3.1103e+02,1.3463e-02
1.0000e+02,1.0000e-02,-2.7972e+00,8.0268e+01,7.7471e+01,2.9255e+02,2.9648e-01
