[
  {
    "status": "Initialized", 
    "thermostat_interval": 50, 
    "remove_rotation_interval": 0, 
    "barostat": "Off", 
    "thermostat": "Off", 
    "algorithm": "MD", 
    "barostat_relaxation_time": 1.5, 
    "initial_T": 1.0, 
    "num_steps": 100000, 
    "output_interval": 100, 
    "initialize_velocities": "Off", 
    "pressure": 1.0, 
    "friction": 0.1, 
    "final_T": 1.0, 
    "remove_translation_interval": 0, 
    "time_step": 1, 
    "thermostat_relaxation_time": 0.2
  }
]